…
``` r
distinct(instacart, aisle_id)
```

    ## # A tibble: 134 × 1
    ##    aisle_id
    ##       <int>
    ##  1      120
    ##  2      108
    ##  3       83
    ##  4       95
    ##  5       24
    ##  6       21
    ##  7        2
    ##  8      115
    ##  9       53
    ## 10      123
    ## # … with 124 more rows
